module github.com/moshloop/platform-cli

go 1.12

require (
	github.com/aws/aws-sdk-go v1.29.25
	github.com/dghubble/sling v1.3.0
	github.com/fatih/structs v1.1.0
	github.com/flanksource/commons v1.2.0
	github.com/flanksource/konfigadm v0.6.0-2-g9751ff1
	github.com/go-pg/pg/v9 v9.1.6
	github.com/go-test/deep v1.0.2-0.20181118220953-042da051cf31
	github.com/google/uuid v1.1.1
	github.com/hashicorp/vault/api v1.0.4
	github.com/imdario/mergo v0.3.8
	github.com/kr/pretty v0.2.0
	github.com/miekg/dns v1.1.22
	github.com/minio/minio-go/v6 v6.0.44
	github.com/mitchellh/mapstructure v1.1.2
	github.com/olivere/elastic/v7 v7.0.13
	github.com/onsi/gomega v1.9.0
	github.com/pkg/errors v0.9.1
	github.com/prometheus/client_golang v1.5.0
	github.com/prometheus/common v0.9.1
	github.com/sirupsen/logrus v1.4.2
	github.com/spf13/cobra v0.0.6
	github.com/vbauerster/mpb/v5 v5.0.3
	github.com/vmware/go-vmware-nsxt v0.0.0-20190201205556-16aa0443042d
	github.com/vmware/govmomi v0.21.0
	go.etcd.io/etcd v0.0.0-20191023171146-3cf2f69b5738
	google.golang.org/grpc v1.26.0
	gopkg.in/flanksource/yaml.v3 v3.1.0
	gopkg.in/yaml.v2 v2.2.8
	k8s.io/api v0.17.3
	k8s.io/apimachinery v0.17.3
	k8s.io/cli-runtime v0.17.3
	k8s.io/client-go v11.0.0+incompatible
	k8s.io/cluster-bootstrap v0.17.2
	k8s.io/klog v1.0.0
	sigs.k8s.io/controller-runtime v0.4.0
	sigs.k8s.io/kind v0.7.1-0.20200303021537-981bd80d3802
	sigs.k8s.io/kustomize v2.0.3+incompatible
	sigs.k8s.io/yaml v1.2.0
)

replace (
	github.com/Azure/go-autorest => github.com/Azure/go-autorest v13.0.0+incompatible
	github.com/go-check/check v1.0.0-20180628173108-788fd7840127 => github.com/go-check/check v0.0.0-20190902080502-41f04d3bba15
	github.com/russross/blackfriday v2.0.0+incompatible => github.com/russross/blackfriday v1.5.2
	golang.org/x/exp => golang.org/x/exp v0.0.0-20190829150108-63fe5bdad115
	gopkg.in/hairyhenderson/yaml.v2 => github.com/maxaudron/yaml v0.0.0-20190411130442-27c13492fe3c
	k8s.io/client-go => k8s.io/client-go v0.17.0
)
